{
  "type": "service_account",
  "project_id": "app-partiu",
  "private_key_id": "8845100d5d99303868429cf1eeceebd5837a6c23",
  "private_key": "-----BEGIN PRIVATE KEY-----\nMIIEvAIBADANBgkqhkiG9w0BAQEFAASCBKYwggSiAgEAAoIBAQCa3fOCKZuMJjhp\nF+Jrx/f9yJOM9RoiB5HrUxVbscCrXNgwzLzuWixwbTxg4KHPFz91gWFmIU3JMvkP\ncsj6P1ozLAWWYR/Vo+h4TPi+IwgSFRUgHcV4Z0hyXXQYQtop+UAQkjWRgdqhr3HL\ni97/3AvjiP+9vM4IlCCinXNeR0vo4sjnyAiyZAkuU1XPI5Tra2jsAc2rv3TzwFY3\nNuQD+LFwyJ6XVecfXgOLz16xWsoo5a9S+jxS0w1VI5beawrS1lmkLiThckUsOei7\nbnGHVDs0Ifzwc6SO+Z9AzCAk2HV7nQOALWxEoCHVpiKuQ5DZ5pQUqJ2Xlj6f2z4Z\ncWk8VQHXAgMBAAECggEATMYyhXkuCS0bcxIpp+gTC4enik4qHeulzcU7BeGZk/pr\nnMmq8fjXJgcpUxeZb+plBdJVoEVrZA62hQ+RDephQ5QT0wikOQvQX+88szn3sssr\n1Wec8UM2mae1uZ9Ou1c7CNwK3W9EHTq2TcOyEiKa7DqLGhtjAsK4aRVoT7lFqxYY\n5II0v2uHYTVk7V6KcRI0WYauyzWdBv+J2/Ifo34tnkmPAkzUgygniBrk0HA3w0kS\n6q4MS9rJUEna+o4kcdLwXi80IS4nGFOsJHUPRtbE0rcIJNSs1YVkfGAVBKfVxR6H\nRuccVDaUFSarTCwPBvNpD7eF+OOlm7OBqRx+7+EDLQKBgQDTE1Kt7aO94B+aL8p3\nuycUKUsS6swj80nHKOlgysX6mFS2QS6DNdVG/MAc/G+J7gdiv44juJC+qRZaWhhY\nI4eW6ZKlV1GxEQL6CUfJQKVsnsodlGBXGo/2nniJu/Ft7/u8sc0q11n1utOHhoGz\n8/kvunO0wWGx+oDmgBFXpKHCtQKBgQC71AxDmhftYFuwSSej7DHt4Whyypd6tf1j\ntAIV8TFpyt8AwpOdw26AGP2DQuMUC7oOUHJxdcnKHXy1hciiSbLqQl6+udbTFUd7\nxNXoHMeLFIDVxHrTXmNIwCtiJbcjfoguaW/b6cEzMcoSsSkcJIOxWXspT6mTRhPQ\nbAYUs7dN2wKBgHOSZPbu43UXvrYB7O5Z/y++3GhjP5t/nqn58K8a2AQ6XEfesMUP\nONRBmD9GyRvQxSKAmCde64I5uw+FvUalTZyID8+QXB6DngmiAzhiuTEcULaZg5at\n6J20b3ObALqdaE0NXbVTbOJrhV7zexk5QPutL6WNLRzyeJm9DcHbVubxAoGAZOxF\nQrWzkZqq6YgFQrERCu6I/tUYm5jZ9A6u6DdXA688L95dDvIJl87VuQfhl83NRQ+4\nznop2O4LKkYeTgUnm3PaEMUuRvEyHbDf9v4vwe1cZIBUNuqKknafWPdG9k1wwu9o\naVOqueVQ3MZQfoyoLk0UPlhNl5KZ5u2EPu9p2O0CgYAvKUzZ3H+JCMYjSgZ2ffSi\ny2xg+8RTVrvGweuGE3IQaIxollEBgoCuEWlH2wjlLANgRmpwMHmqSZW5KWAHZi4o\n28Fgpj/HUXLjvm6TJ43FREo0aJXezc0zwazBHCmNVvM9GT7dcUOAWuPR6K0KRGkz\nZPyWjrEQjlbhJaWDGnOMmg==\n-----END PRIVATE KEY-----\n",
  "client_email": "firebase-adminsdk-tpxb6@app-partiu.iam.gserviceaccount.com",
  "client_id": "111043581868075597574",
  "auth_uri": "https://accounts.google.com/o/oauth2/auth",
  "token_uri": "https://accounts.google.com/o/oauth2/token",
  "auth_provider_x509_cert_url": "https://www.googleapis.com/oauth2/v1/certs",
  "client_x509_cert_url": "https://www.googleapis.com/robot/v1/metadata/x509/firebase-adminsdk-tpxb6%40app-partiu.iam.gserviceaccount.com"
}
